{
   "html_attributions" : [],
   "result" : {
      "name" : "Agistri Club Hotel",
      "photos" : [
         {
            "height" : 4128,
            "html_attributions" : [
               "\u003ca href=\"https://maps.google.com/maps/contrib/100134665702365827767\"\u003eIra paspartoo\u003c/a\u003e"
            ],
            "photo_reference" : "CmRaAAAAJQAT-qUTMSDBOgomY2F7xI0pqLbdyGYva1FruCaYqPS7CtFB_02Tfg-RqSB0pMeAiIl-FfMQ1MREkRqYna_JL1P_eoiultFgJT90uz648DFHYQAMvLw1fWJ78k3LoZcYEhCx4_3k2W_OhDtflEYVHhY3GhQUntnSs0byd4zEtf9KU6usnD-mcA",
            "width" : 2322
         },
         {
            "height" : 620,
            "html_attributions" : [
               "\u003ca href=\"https://maps.google.com/maps/contrib/101251544197360418721\"\u003eClaudia Mahler\u003c/a\u003e"
            ],
            "photo_reference" : "CmRaAAAATVJhL3btIscDFiyOhXXvY7rXUt2ED-nKQbkb5vfhRgMYQDnrxGduSY9EspkkVbN3uhmgQF58aLlhv17c-fQYGgcT0_Zme9z1Gf2y5TylE0AYpQBJ_9RULi3-rZTMxEJgEhA4KZ2OAKm7d_FxrBc_-iMEGhRjivHssHHf6fymxamXMVaaPlUWxA",
            "width" : 853
         },
         {
            "height" : 430,
            "html_attributions" : [
               "\u003ca href=\"https://maps.google.com/maps/contrib/115784643731385900021\"\u003eAgistri Club Hotel\u003c/a\u003e"
            ],
            "photo_reference" : "CmRaAAAAYu2FdwMpVEvBQGhRSZkVoCy9xG5aPGK31GLkQ2V_lACaiE_FOLEi6qpsuirKCc-wMOkcrLbElsFyq-B87O3NYsGYEcfEOeW9bOZTgVQmTokCJGR63HVNtd1HePt6LH7NEhCoanWqNtm3_Kx4Pxp0SLs9GhSqyMm4p4RbJZiVbWEzpsfHlITXUQ",
            "width" : 926
         },
         {
            "height" : 2340,
            "html_attributions" : [
               "\u003ca href=\"https://maps.google.com/maps/contrib/104355632558708616853\"\u003eSara Goll\u003c/a\u003e"
            ],
            "photo_reference" : "CmRaAAAAQLTYHc5nKD5HPft7WE_gqNRgrw-pQf8u9CJS1USS3fpmCWELqjNy11gddIoWhytmbclwgv5_DzeCLj4qivQvSUBOnIwcHqTu-FXT__2g6fCiZehxj11Ea547jNW2H-teEhDUat30nnI19-4zz6kUApZbGhQ8cW4oYAMmduOOPOhpbkf_DBo7Kw",
            "width" : 4160
         },
         {
            "height" : 4032,
            "html_attributions" : [
               "\u003ca href=\"https://maps.google.com/maps/contrib/115135717758763626833\"\u003eJu lie\u003c/a\u003e"
            ],
            "photo_reference" : "CmRaAAAA7bVpMX8COo0eXN0k2oTO4KLqS_EEgZKUhzddMq6z9guZP38atQ5sue3Q-oh2Xw4QGX1S_wxKBH6giVw7S-ENiTwQ8-HFOIKovGjlIkN7GnPoAuRHwoASr9VqPqwxp6VFEhBkTbUhCFQk4jtzgpscP-0XGhQv1OdW1dwwdWwxVtAxzmzeBJ8IUQ",
            "width" : 3024
         },
         {
            "height" : 3024,
            "html_attributions" : [
               "\u003ca href=\"https://maps.google.com/maps/contrib/115135717758763626833\"\u003eJu lie\u003c/a\u003e"
            ],
            "photo_reference" : "CmRaAAAA-rOe922ZSDyVouvvgFD5sH2J9i8YsVaRSBt3fTYin37AwSeYqJQ5DabjRtBNveTaLDm7XjdzW0mE5huoJBLgdvATbgUncQlTip_LzW3jThrHv6AfkHs2EQcf-OoZo_SZEhBhw9QPZY06UAcuDTRYjnmCGhThqmxuAZYjEMZAqHVaWk1kTfdrQQ",
            "width" : 4032
         },
         {
            "height" : 3024,
            "html_attributions" : [
               "\u003ca href=\"https://maps.google.com/maps/contrib/115135717758763626833\"\u003eJu lie\u003c/a\u003e"
            ],
            "photo_reference" : "CmRaAAAAAbKA36MS7Ps5xaAd8LaIqolAsixggBcYyexEphZx1uLB4xoa96cRgF7YW3pKuwpx1Kono-sp5H9zqjlkq-X6-2WmnOFZgEuetP-av49YYGGpaoWJrebQnbG_gPMpPbGVEhDOgSfo17S7GtETgBgG8sbgGhQCnzFIVm1VvbPMYPlQI6AzAC2YZQ",
            "width" : 4032
         },
         {
            "height" : 2592,
            "html_attributions" : [
               "\u003ca href=\"https://maps.google.com/maps/contrib/105607539140019644819\"\u003elorne philpot\u003c/a\u003e"
            ],
            "photo_reference" : "CmRaAAAAT3q-XIJuCXkBG7Eu_wO4PcP0lC1y6S3oOX8BUllHmfk0dO6_aFA5kTsZwZfC1pwS6uBuJRS3uf-RGNdTe_nHWfJuqHRyV96WOSEXe5zSeTZui14ofrvFD1uZLLrZAa9IEhAOEVhHQhNzr_z5JIJZeJTkGhRg_pn8oxinffgVIxgdF1e2XTNeKw",
            "width" : 1936
         },
         {
            "height" : 4032,
            "html_attributions" : [
               "\u003ca href=\"https://maps.google.com/maps/contrib/115135717758763626833\"\u003eJu lie\u003c/a\u003e"
            ],
            "photo_reference" : "CmRaAAAAUYEUKR2KHCqLdovH2xUGPgr1wxtISJtOMy55wjasuAM7ThF5_vs2hfEieMjTWaNB1xYurOOvFaspxcmgXrnYkFgPHUwE8D7uPPtOqEpop-k0vdTcCN-XFftWx_pb6vWnEhCgipXXgAgfzZxYArfxAfGgGhQNYQzCZgcNWfjcGNFmz2VIBx0dVQ",
            "width" : 3024
         },
         {
            "height" : 2736,
            "html_attributions" : [
               "\u003ca href=\"https://maps.google.com/maps/contrib/102594373595352370347\"\u003eYudit meimran\u003c/a\u003e"
            ],
            "photo_reference" : "CmRaAAAAnk-JOMcT8EaFQtn7wY_75QuZhqhS1H_LsZJOm97s4WKUsJK-oojg41znWxa32fZ-hia6Ibit87gaFQjBLO-vyf-NUs9WBi206DLW6tZ7_8Glv9AJvz3vwrkHkP751ccMEhBDxhqqs_0p6qhja0rCh7_uGhSAb_0E-omTGJxTrw-DyQhkA5XtWQ",
            "width" : 3648
         }
      ],
      "rating" : 4.7,
      "reviews" : [
         {
            "author_name" : "erol seherlioglu",
            "author_url" : "https://www.google.com/maps/contrib/113773541959300032866/reviews",
            "language" : "tr",
            "profile_photo_url" : "https://lh3.googleusercontent.com/a-/AOh14GgYYS5z1Ycu3KVIzzzA3lWVGo8q5N9NTM_IU3mzSA=s128-c0x00000000-cc-rp-mo",
            "rating" : 2,
            "relative_time_description" : "3 yıl önce",
            "text" : "Kahvaltı rezalet internet çalışmıyor.ancak manzara mükemmel çalışanlar dost canlısı",
            "time" : 1473745420
         },
         {
            "author_name" : "Kwnstadinos Tzortzakis",
            "author_url" : "https://www.google.com/maps/contrib/107959515869954765684/reviews",
            "language" : "el",
            "profile_photo_url" : "https://lh3.googleusercontent.com/a-/AOh14GimsW-BufyN2d71rqfZAcPdAxwawHzOyMyqvAu8Tfg=s128-c0x00000000-cc-rp-mo-ba4",
            "rating" : 4,
            "relative_time_description" : "3 ay önce",
            "text" : "Περιποιημένα με θέα θάλασσα και καθαρά. δωμάτια.Καλή εξυπηρέτηση..Έχει πάρκιν και πανέμορφη βεράντα για πρωινό ή και δείπνο...Μικρό δωμάτιο για 50 ευρώ την βραδιά,  για έναν ύπνο είναι μόνο..",
            "time" : 1581192187
         },
         {
            "author_name" : "Chad Shaw",
            "author_url" : "https://www.google.com/maps/contrib/101579523031598519304/reviews",
            "language" : "en",
            "profile_photo_url" : "https://lh4.googleusercontent.com/-iVKtniFgC5U/AAAAAAAAAAI/AAAAAAAAAAA/AMZuuclPqVCMLQMNEE8LwkxwRpKLAaRVOw/s128-c0x00000000-cc-rp-mo-ba3/photo.jpg",
            "rating" : 5,
            "relative_time_description" : "7 ay önce",
            "text" : "Such a beautiful place. We came here for a beer in the afternoon. Such beautiful views and super friendly service. We wish we booked here to stay. A beach super close by and another private one 10 minutes walk away. Quote from my friend we were with \"ten stars out of five\"",
            "time" : 1570296313
         },
         {
            "author_name" : "Shirley Soealman",
            "author_url" : "https://www.google.com/maps/contrib/109163464875932711938/reviews",
            "language" : "nl",
            "profile_photo_url" : "https://lh6.googleusercontent.com/-46rUKXQgCRo/AAAAAAAAAAI/AAAAAAAAAAA/AMZuuclmNWwKDFq2pb7nNuusqwUOLcW6Zg/s128-c0x00000000-cc-rp-mo/photo.jpg",
            "rating" : 4,
            "relative_time_description" : "7 ay önce",
            "text" : "Een heerlijke nette witte kamer met view op de azuurblauwe zee.Het eten is dagelijks vers en heerlijk gevarieerd! Het personeel is ontzettend vriendelijk.De buurt met de prachtige omgeving is dichtbij stranden, winkels en restaurants. Je kan hier ontbijten en avond eten met het prachtige uitzicht op zee. De eigenaar zet zich daarnaast in voor zwerfkatten en honden.",
            "time" : 1569842119
         },
         {
            "author_name" : "Kate Jackson Ultimate",
            "author_url" : "https://www.google.com/maps/contrib/115780900573191041781/reviews",
            "language" : "el",
            "profile_photo_url" : "https://lh3.googleusercontent.com/a-/AOh14GgrJnosF_-1FKK2JBOyoIj4QT1yCXlT027MPk-J=s128-c0x00000000-cc-rp-mo-ba3",
            "rating" : 5,
            "relative_time_description" : "8 ay önce",
            "text" : "Όμορφη τοποθεσία, περιποιημένα και καθαρά δωμάτια, φιλικό και φιλόξενο μέρος με οικοδεσπότη τον Μπράιαν. Μέτριο πρωινό αλλά σε γενικές γραμμές υπέροχος χώρος και πολύ φιλικός. Τι άλλο να ζητήσει κανείς. Θα ξαναέρθουμε σίγουρα.",
            "time" : 1566285681
         }
      ]
   },
   "status" : "OK"
}
